{
  "items": [
      {
          "external_urls": {
              "spotify": "https://open.spotify.com/artist/4xRYI6VqpkE3UwrDrAZL8L"
          },
          "followers": {
              "href": null,
              "total": 0
          },
          "genres": [
              "conscious hip hop",
              "hip hop",
              "pop rap",
              "rap"
          ],
          "href": "https://api.spotify.com/v1/artists/4xRYI6VqpkE3UwrDrAZL8L",
          "id": "4xRYI6VqpkE3UwrDrAZL8L",
          "images": [
              {
                  "height": 640,
                  "url": "https://i.scdn.co/image/ab6761610000e5eb6581cd61841a546e8ba1dc1f",
                  "width": 640
              },
              {
                  "height": 320,
                  "url": "https://i.scdn.co/image/ab676161000051746581cd61841a546e8ba1dc1f",
                  "width": 320
              },
              {
                  "height": 160,
                  "url": "https://i.scdn.co/image/ab6761610000f1786581cd61841a546e8ba1dc1f",
                  "width": 160
              }
          ],
          "name": "Logic",
          "popularity": 73,
          "type": "artist",
          "uri": "spotify:artist:4xRYI6VqpkE3UwrDrAZL8L"
      },
      {
          "external_urls": {
              "spotify": "https://open.spotify.com/artist/7dGJo4pcD2V6oG8kP0tJRR"
          },
          "followers": {
              "href": null,
              "total": 0
          },
          "genres": [
              "detroit hip hop",
              "hip hop",
              "rap"
          ],
          "href": "https://api.spotify.com/v1/artists/7dGJo4pcD2V6oG8kP0tJRR",
          "id": "7dGJo4pcD2V6oG8kP0tJRR",
          "images": [
              {
                  "height": 640,
                  "url": "https://i.scdn.co/image/ab6761610000e5eba00b11c129b27a88fc72f36b",
                  "width": 640
              },
              {
                  "height": 320,
                  "url": "https://i.scdn.co/image/ab67616100005174a00b11c129b27a88fc72f36b",
                  "width": 320
              },
              {
                  "height": 160,
                  "url": "https://i.scdn.co/image/ab6761610000f178a00b11c129b27a88fc72f36b",
                  "width": 160
              }
          ],
          "name": "Eminem",
          "popularity": 90,
          "type": "artist",
          "uri": "spotify:artist:7dGJo4pcD2V6oG8kP0tJRR"
      },
      {
          "external_urls": {
              "spotify": "https://open.spotify.com/artist/38SKxCyfrmNWqWunb9wGHP"
          },
          "followers": {
              "href": null,
              "total": 0
          },
          "genres": [],
          "href": "https://api.spotify.com/v1/artists/38SKxCyfrmNWqWunb9wGHP",
          "id": "38SKxCyfrmNWqWunb9wGHP",
          "images": [
              {
                  "height": 640,
                  "url": "https://i.scdn.co/image/ab6761610000e5eb8c4d3341d32def7725e65183",
                  "width": 640
              },
              {
                  "height": 320,
                  "url": "https://i.scdn.co/image/ab676161000051748c4d3341d32def7725e65183",
                  "width": 320
              },
              {
                  "height": 160,
                  "url": "https://i.scdn.co/image/ab6761610000f1788c4d3341d32def7725e65183",
                  "width": 160
              }
          ],
          "name": "Good Kid",
          "popularity": 63,
          "type": "artist",
          "uri": "spotify:artist:38SKxCyfrmNWqWunb9wGHP"
      },
      {
          "external_urls": {
              "spotify": "https://open.spotify.com/artist/61H9d7hbIfFNxJJQmIL9AJ"
          },
          "followers": {
              "href": null,
              "total": 0
          },
          "genres": [
              "j-rock",
              "japanese alternative rock"
          ],
          "href": "https://api.spotify.com/v1/artists/61H9d7hbIfFNxJJQmIL9AJ",
          "id": "61H9d7hbIfFNxJJQmIL9AJ",
          "images": [
              {
                  "height": 640,
                  "url": "https://i.scdn.co/image/ab6761610000e5eb5affe21a8dff00db89e8c62e",
                  "width": 640
              },
              {
                  "height": 320,
                  "url": "https://i.scdn.co/image/ab676161000051745affe21a8dff00db89e8c62e",
                  "width": 320
              },
              {
                  "height": 160,
                  "url": "https://i.scdn.co/image/ab6761610000f1785affe21a8dff00db89e8c62e",
                  "width": 160
              }
          ],
          "name": "Kinokoteikoku",
          "popularity": 47,
          "type": "artist",
          "uri": "spotify:artist:61H9d7hbIfFNxJJQmIL9AJ"
      },
      {
          "external_urls": {
              "spotify": "https://open.spotify.com/artist/3PgEvPJKRuil74QPX8wtXY"
          },
          "followers": {
              "href": null,
              "total": 0
          },
          "genres": [
              "indie rockism",
              "modern alternative rock"
          ],
          "href": "https://api.spotify.com/v1/artists/3PgEvPJKRuil74QPX8wtXY",
          "id": "3PgEvPJKRuil74QPX8wtXY",
          "images": [
              {
                  "height": 640,
                  "url": "https://i.scdn.co/image/ab6761610000e5eb436ecd793dfccfea69af61be",
                  "width": 640
              },
              {
                  "height": 320,
                  "url": "https://i.scdn.co/image/ab67616100005174436ecd793dfccfea69af61be",
                  "width": 320
              },
              {
                  "height": 160,
                  "url": "https://i.scdn.co/image/ab6761610000f178436ecd793dfccfea69af61be",
                  "width": 160
              }
          ],
          "name": "Friday Pilots Club",
          "popularity": 54,
          "type": "artist",
          "uri": "spotify:artist:3PgEvPJKRuil74QPX8wtXY"
      },
      {
          "external_urls": {
              "spotify": "https://open.spotify.com/artist/4pb4rqWSoGUgxm63xmJ8xc"
          },
          "followers": {
              "href": null,
              "total": 0
          },
          "genres": [
              "complextro",
              "edm",
              "electro house",
              "electropop",
              "filter house",
              "nantes indie",
              "pop dance"
          ],
          "href": "https://api.spotify.com/v1/artists/4pb4rqWSoGUgxm63xmJ8xc",
          "id": "4pb4rqWSoGUgxm63xmJ8xc",
          "images": [
              {
                  "height": 640,
                  "url": "https://i.scdn.co/image/ab6761610000e5ebeb3e154881ba6cc3e4d4980d",
                  "width": 640
              },
              {
                  "height": 320,
                  "url": "https://i.scdn.co/image/ab67616100005174eb3e154881ba6cc3e4d4980d",
                  "width": 320
              },
              {
                  "height": 160,
                  "url": "https://i.scdn.co/image/ab6761610000f178eb3e154881ba6cc3e4d4980d",
                  "width": 160
              }
          ],
          "name": "Madeon",
          "popularity": 54,
          "type": "artist",
          "uri": "spotify:artist:4pb4rqWSoGUgxm63xmJ8xc"
      },
      {
          "external_urls": {
              "spotify": "https://open.spotify.com/artist/6fOMl44jA4Sp5b9PpYCkzz"
          },
          "followers": {
              "href": null,
              "total": 0
          },
          "genres": [
              "hip hop",
              "pop rap"
          ],
          "href": "https://api.spotify.com/v1/artists/6fOMl44jA4Sp5b9PpYCkzz",
          "id": "6fOMl44jA4Sp5b9PpYCkzz",
          "images": [
              {
                  "height": 640,
                  "url": "https://i.scdn.co/image/ab6761610000e5eb1cf142a710a2f3d9b7a62da1",
                  "width": 640
              },
              {
                  "height": 320,
                  "url": "https://i.scdn.co/image/ab676161000051741cf142a710a2f3d9b7a62da1",
                  "width": 320
              },
              {
                  "height": 160,
                  "url": "https://i.scdn.co/image/ab6761610000f1781cf142a710a2f3d9b7a62da1",
                  "width": 160
              }
          ],
          "name": "NF",
          "popularity": 79,
          "type": "artist",
          "uri": "spotify:artist:6fOMl44jA4Sp5b9PpYCkzz"
      },
      {
          "external_urls": {
              "spotify": "https://open.spotify.com/artist/3TVXtAsR1Inumwj472S9r4"
          },
          "followers": {
              "href": null,
              "total": 0
          },
          "genres": [
              "canadian hip hop",
              "canadian pop",
              "hip hop",
              "pop rap",
              "rap"
          ],
          "href": "https://api.spotify.com/v1/artists/3TVXtAsR1Inumwj472S9r4",
          "id": "3TVXtAsR1Inumwj472S9r4",
          "images": [
              {
                  "height": 640,
                  "url": "https://i.scdn.co/image/ab6761610000e5eb4293385d324db8558179afd9",
                  "width": 640
              },
              {
                  "height": 320,
                  "url": "https://i.scdn.co/image/ab676161000051744293385d324db8558179afd9",
                  "width": 320
              },
              {
                  "height": 160,
                  "url": "https://i.scdn.co/image/ab6761610000f1784293385d324db8558179afd9",
                  "width": 160
              }
          ],
          "name": "Drake",
          "popularity": 96,
          "type": "artist",
          "uri": "spotify:artist:3TVXtAsR1Inumwj472S9r4"
      },
      {
          "external_urls": {
              "spotify": "https://open.spotify.com/artist/2Hchwjfl1DioXcIwbOJkus"
          },
          "followers": {
              "href": null,
              "total": 0
          },
          "genres": [
              "future bass"
          ],
          "href": "https://api.spotify.com/v1/artists/2Hchwjfl1DioXcIwbOJkus",
          "id": "2Hchwjfl1DioXcIwbOJkus",
          "images": [
              {
                  "height": 640,
                  "url": "https://i.scdn.co/image/ab6761610000e5eb07d7a890f5d86a7cb00c55a9",
                  "width": 640
              },
              {
                  "height": 320,
                  "url": "https://i.scdn.co/image/ab6761610000517407d7a890f5d86a7cb00c55a9",
                  "width": 320
              },
              {
                  "height": 160,
                  "url": "https://i.scdn.co/image/ab6761610000f17807d7a890f5d86a7cb00c55a9",
                  "width": 160
              }
          ],
          "name": "Grant",
          "popularity": 48,
          "type": "artist",
          "uri": "spotify:artist:2Hchwjfl1DioXcIwbOJkus"
      },
      {
          "external_urls": {
              "spotify": "https://open.spotify.com/artist/4V8LLVI7PbaPR0K2TGSxFF"
          },
          "followers": {
              "href": null,
              "total": 0
          },
          "genres": [
              "hip hop",
              "rap"
          ],
          "href": "https://api.spotify.com/v1/artists/4V8LLVI7PbaPR0K2TGSxFF",
          "id": "4V8LLVI7PbaPR0K2TGSxFF",
          "images": [
              {
                  "height": 640,
                  "url": "https://i.scdn.co/image/ab6761610000e5eb8278b782cbb5a3963db88ada",
                  "width": 640
              },
              {
                  "height": 320,
                  "url": "https://i.scdn.co/image/ab676161000051748278b782cbb5a3963db88ada",
                  "width": 320
              },
              {
                  "height": 160,
                  "url": "https://i.scdn.co/image/ab6761610000f1788278b782cbb5a3963db88ada",
                  "width": 160
              }
          ],
          "name": "Tyler, The Creator",
          "popularity": 84,
          "type": "artist",
          "uri": "spotify:artist:4V8LLVI7PbaPR0K2TGSxFF"
      },
      {
          "external_urls": {
              "spotify": "https://open.spotify.com/artist/3wrFoI9EVjWg6m8xXeWr5t"
          },
          "followers": {
              "href": null,
              "total": 0
          },
          "genres": [
              "video game music"
          ],
          "href": "https://api.spotify.com/v1/artists/3wrFoI9EVjWg6m8xXeWr5t",
          "id": "3wrFoI9EVjWg6m8xXeWr5t",
          "images": [
              {
                  "height": 640,
                  "url": "https://i.scdn.co/image/ab6761610000e5ebf777c8d6f705fa1e32f75b86",
                  "width": 640
              },
              {
                  "height": 320,
                  "url": "https://i.scdn.co/image/ab67616100005174f777c8d6f705fa1e32f75b86",
                  "width": 320
              },
              {
                  "height": 160,
                  "url": "https://i.scdn.co/image/ab6761610000f178f777c8d6f705fa1e32f75b86",
                  "width": 160
              }
          ],
          "name": "VALORANT",
          "popularity": 61,
          "type": "artist",
          "uri": "spotify:artist:3wrFoI9EVjWg6m8xXeWr5t"
      },
      {
          "external_urls": {
              "spotify": "https://open.spotify.com/artist/5K4W6rqBFWDnAN6FQUkS6x"
          },
          "followers": {
              "href": null,
              "total": 0
          },
          "genres": [
              "chicago rap",
              "hip hop",
              "rap"
          ],
          "href": "https://api.spotify.com/v1/artists/5K4W6rqBFWDnAN6FQUkS6x",
          "id": "5K4W6rqBFWDnAN6FQUkS6x",
          "images": [
              {
                  "height": 640,
                  "url": "https://i.scdn.co/image/ab6761610000e5eb867008a971fae0f4d913f63a",
                  "width": 640
              },
              {
                  "height": 320,
                  "url": "https://i.scdn.co/image/ab67616100005174867008a971fae0f4d913f63a",
                  "width": 320
              },
              {
                  "height": 160,
                  "url": "https://i.scdn.co/image/ab6761610000f178867008a971fae0f4d913f63a",
                  "width": 160
              }
          ],
          "name": "Kanye West",
          "popularity": 91,
          "type": "artist",
          "uri": "spotify:artist:5K4W6rqBFWDnAN6FQUkS6x"
      },
      {
          "external_urls": {
              "spotify": "https://open.spotify.com/artist/3dz0NnIZhtKKeXZxLOxCam"
          },
          "followers": {
              "href": null,
              "total": 0
          },
          "genres": [
              "complextro",
              "edm",
              "electro house",
              "pop dance",
              "progressive electro house"
          ],
          "href": "https://api.spotify.com/v1/artists/3dz0NnIZhtKKeXZxLOxCam",
          "id": "3dz0NnIZhtKKeXZxLOxCam",
          "images": [
              {
                  "height": 640,
                  "url": "https://i.scdn.co/image/ab6761610000e5eb6ccb967cecc6f1da90fe355e",
                  "width": 640
              },
              {
                  "height": 320,
                  "url": "https://i.scdn.co/image/ab676161000051746ccb967cecc6f1da90fe355e",
                  "width": 320
              },
              {
                  "height": 160,
                  "url": "https://i.scdn.co/image/ab6761610000f1786ccb967cecc6f1da90fe355e",
                  "width": 160
              }
          ],
          "name": "Porter Robinson",
          "popularity": 59,
          "type": "artist",
          "uri": "spotify:artist:3dz0NnIZhtKKeXZxLOxCam"
      },
      {
          "external_urls": {
              "spotify": "https://open.spotify.com/artist/246dkjvS1zLTtiykXe5h60"
          },
          "followers": {
              "href": null,
              "total": 0
          },
          "genres": [
              "dfw rap",
              "melodic rap",
              "pop",
              "rap"
          ],
          "href": "https://api.spotify.com/v1/artists/246dkjvS1zLTtiykXe5h60",
          "id": "246dkjvS1zLTtiykXe5h60",
          "images": [
              {
                  "height": 640,
                  "url": "https://i.scdn.co/image/ab6761610000e5eb6be070445b03e0b63147c2c1",
                  "width": 640
              },
              {
                  "height": 320,
                  "url": "https://i.scdn.co/image/ab676161000051746be070445b03e0b63147c2c1",
                  "width": 320
              },
              {
                  "height": 160,
                  "url": "https://i.scdn.co/image/ab6761610000f1786be070445b03e0b63147c2c1",
                  "width": 160
              }
          ],
          "name": "Post Malone",
          "popularity": 87,
          "type": "artist",
          "uri": "spotify:artist:246dkjvS1zLTtiykXe5h60"
      },
      {
          "external_urls": {
              "spotify": "https://open.spotify.com/artist/3nFkdlSjzX9mRTtwJOzDYB"
          },
          "followers": {
              "href": null,
              "total": 0
          },
          "genres": [
              "east coast hip hop",
              "gangster rap",
              "hip hop",
              "pop rap",
              "rap"
          ],
          "href": "https://api.spotify.com/v1/artists/3nFkdlSjzX9mRTtwJOzDYB",
          "id": "3nFkdlSjzX9mRTtwJOzDYB",
          "images": [
              {
                  "height": 640,
                  "url": "https://i.scdn.co/image/ab6761610000e5ebc75afcd5a9027f60eaebb5e4",
                  "width": 640
              },
              {
                  "height": 320,
                  "url": "https://i.scdn.co/image/ab67616100005174c75afcd5a9027f60eaebb5e4",
                  "width": 320
              },
              {
                  "height": 160,
                  "url": "https://i.scdn.co/image/ab6761610000f178c75afcd5a9027f60eaebb5e4",
                  "width": 160
              }
          ],
          "name": "JAY-Z",
          "popularity": 83,
          "type": "artist",
          "uri": "spotify:artist:3nFkdlSjzX9mRTtwJOzDYB"
      },
      {
          "external_urls": {
              "spotify": "https://open.spotify.com/artist/581C5Qwl87TskfBEzuoisu"
          },
          "followers": {
              "href": null,
              "total": 0
          },
          "genres": [
              "brooklyn indie",
              "sped up"
          ],
          "href": "https://api.spotify.com/v1/artists/581C5Qwl87TskfBEzuoisu",
          "id": "581C5Qwl87TskfBEzuoisu",
          "images": [
              {
                  "height": 640,
                  "url": "https://i.scdn.co/image/ab6761610000e5ebc8ff003610ebb5bab7add76b",
                  "width": 640
              },
              {
                  "height": 320,
                  "url": "https://i.scdn.co/image/ab67616100005174c8ff003610ebb5bab7add76b",
                  "width": 320
              },
              {
                  "height": 160,
                  "url": "https://i.scdn.co/image/ab6761610000f178c8ff003610ebb5bab7add76b",
                  "width": 160
              }
          ],
          "name": "Cafuné",
          "popularity": 64,
          "type": "artist",
          "uri": "spotify:artist:581C5Qwl87TskfBEzuoisu"
      },
      {
          "external_urls": {
              "spotify": "https://open.spotify.com/artist/0I7HgbIetYEIweWq7nD6En"
          },
          "followers": {
              "href": null,
              "total": 0
          },
          "genres": [
              "complextro"
          ],
          "href": "https://api.spotify.com/v1/artists/0I7HgbIetYEIweWq7nD6En",
          "id": "0I7HgbIetYEIweWq7nD6En",
          "images": [
              {
                  "height": 640,
                  "url": "https://i.scdn.co/image/ab6761610000e5eb83d933a31ed03eebc802012b",
                  "width": 640
              },
              {
                  "height": 320,
                  "url": "https://i.scdn.co/image/ab6761610000517483d933a31ed03eebc802012b",
                  "width": 320
              },
              {
                  "height": 160,
                  "url": "https://i.scdn.co/image/ab6761610000f17883d933a31ed03eebc802012b",
                  "width": 160
              }
          ],
          "name": "Notaker",
          "popularity": 37,
          "type": "artist",
          "uri": "spotify:artist:0I7HgbIetYEIweWq7nD6En"
      },
      {
          "external_urls": {
              "spotify": "https://open.spotify.com/artist/6ft7JnxMyZhp7N52qzHymY"
          },
          "followers": {
              "href": null,
              "total": 0
          },
          "genres": [
              "bedroom pop",
              "rochester mn indie"
          ],
          "href": "https://api.spotify.com/v1/artists/6ft7JnxMyZhp7N52qzHymY",
          "id": "6ft7JnxMyZhp7N52qzHymY",
          "images": [
              {
                  "height": 640,
                  "url": "https://i.scdn.co/image/ab6761610000e5eb9310cf18c564e55d8220f9d3",
                  "width": 640
              },
              {
                  "height": 320,
                  "url": "https://i.scdn.co/image/ab676161000051749310cf18c564e55d8220f9d3",
                  "width": 320
              },
              {
                  "height": 160,
                  "url": "https://i.scdn.co/image/ab6761610000f1789310cf18c564e55d8220f9d3",
                  "width": 160
              }
          ],
          "name": "Vansire",
          "popularity": 66,
          "type": "artist",
          "uri": "spotify:artist:6ft7JnxMyZhp7N52qzHymY"
      },
      {
          "external_urls": {
              "spotify": "https://open.spotify.com/artist/1fd3fmwlhrDl2U5wbbPQYN"
          },
          "followers": {
              "href": null,
              "total": 0
          },
          "genres": [
              "bass trap"
          ],
          "href": "https://api.spotify.com/v1/artists/1fd3fmwlhrDl2U5wbbPQYN",
          "id": "1fd3fmwlhrDl2U5wbbPQYN",
          "images": [
              {
                  "height": 640,
                  "url": "https://i.scdn.co/image/ab6761610000e5ebd681a74e4f148b698baf6edb",
                  "width": 640
              },
              {
                  "height": 320,
                  "url": "https://i.scdn.co/image/ab67616100005174d681a74e4f148b698baf6edb",
                  "width": 320
              },
              {
                  "height": 160,
                  "url": "https://i.scdn.co/image/ab6761610000f178d681a74e4f148b698baf6edb",
                  "width": 160
              }
          ],
          "name": "Apashe",
          "popularity": 60,
          "type": "artist",
          "uri": "spotify:artist:1fd3fmwlhrDl2U5wbbPQYN"
      },
      {
          "external_urls": {
              "spotify": "https://open.spotify.com/artist/1Xyo4u8uXC1ZmMpatF05PJ"
          },
          "followers": {
              "href": null,
              "total": 0
          },
          "genres": [
              "canadian contemporary r&b",
              "canadian pop",
              "pop"
          ],
          "href": "https://api.spotify.com/v1/artists/1Xyo4u8uXC1ZmMpatF05PJ",
          "id": "1Xyo4u8uXC1ZmMpatF05PJ",
          "images": [
              {
                  "height": 640,
                  "url": "https://i.scdn.co/image/ab6761610000e5eb214f3cf1cbe7139c1e26ffbb",
                  "width": 640
              },
              {
                  "height": 320,
                  "url": "https://i.scdn.co/image/ab67616100005174214f3cf1cbe7139c1e26ffbb",
                  "width": 320
              },
              {
                  "height": 160,
                  "url": "https://i.scdn.co/image/ab6761610000f178214f3cf1cbe7139c1e26ffbb",
                  "width": 160
              }
          ],
          "name": "The Weeknd",
          "popularity": 95,
          "type": "artist",
          "uri": "spotify:artist:1Xyo4u8uXC1ZmMpatF05PJ"
      }
  ],
  "total": 50,
  "limit": 20,
  "offset": 0,
  "href": "https://api.spotify.com/v1/me/top/artists",
  "next": "https://api.spotify.com/v1/me/top/artists?limit=20&offset=20",
  "previous": null
}